<svg xmlns="http://www.w3.org/2000/svg" width="412" height="231" viewBox="0 0 412 231">
  <g fill="none" fill-rule="evenodd">
    <rect width="412" height="231" fill="#ECECEC"/>
    <path fill="#D2D2D2" d="M224.5,130.300781 C224.5,131.407558 224.076827,132.38411 223.230469,133.230469 C222.38411,134.076827 221.407558,134.5 220.300781,134.5 L191.199219,134.5 C190.092442,134.5 189.11589,134.076827 188.269531,133.230469 C187.423173,132.38411 187,131.407558 187,130.300781 L187,101.199219 C187,100.092442 187.423173,99.1158896 188.269531,98.2695312 C189.11589,97.4231729 190.092442,97 191.199219,97 L220.300781,97 C221.407558,97 222.38411,97.4231729 223.230469,98.2695312 C224.076827,99.1158896 224.5,100.092442 224.5,101.199219 L224.5,130.300781 Z M198.425781,118.875 L191.199219,128.25 L220.300781,128.25 L210.925781,115.75 L203.699219,125.125 L198.425781,118.875 Z"/>
  </g>
</svg>
