<svg xmlns="http://www.w3.org/2000/svg" width="230" height="308" viewBox="0 0 230 308">
  <g fill="none" fill-rule="evenodd">
    <rect width="308" height="230" x="-39" y="39" fill="#EBEBEB" transform="rotate(90 115 154)"/>
    <path fill="#D2D2D2" d="M133.5,168.300781 C133.5,169.407558 133.076827,170.38411 132.230469,171.230469 C131.38411,172.076827 130.407558,172.5 129.300781,172.5 L100.199219,172.5 C99.0924424,172.5 98.1158896,172.076827 97.2695312,171.230469 C96.4231729,170.38411 96,169.407558 96,168.300781 L96,139.199219 C96,138.092442 96.4231729,137.11589 97.2695312,136.269531 C98.1158896,135.423173 99.0924424,135 100.199219,135 L129.300781,135 C130.407558,135 131.38411,135.423173 132.230469,136.269531 C133.076827,137.11589 133.5,138.092442 133.5,139.199219 L133.5,168.300781 Z M107.425781,156.875 L100.199219,166.25 L129.300781,166.25 L119.925781,153.75 L112.699219,163.125 L107.425781,156.875 Z"/>
  </g>
</svg>
