<svg xmlns="http://www.w3.org/2000/svg" width="28" height="25" viewBox="0 0 28 25">
  <path fill-rule="evenodd" d="M27.3631455,13.9951823 L24.774785,13.9951823 L24.774785,23.2651127 C24.774785,23.6062157 24.6744636,23.9473136 24.4738171,24.2884165 C24.2731667,24.6295195 23.861842,24.8000684 23.2398312,24.8000684 L17.0699093,24.8000684 L17.0699093,15.5602352 L10.9300866,15.5602352 L10.9300866,24.8000684 L4.76016856,24.8000684 C4.1381578,24.8000684 3.7268334,24.6295195 3.52618457,24.2884165 C3.32553574,23.9473136 3.22521287,23.6062157 3.22521287,23.2651127 L3.22521287,13.9951823 L0.636856208,13.9951823 C0.175363937,13.9951823 -0.0353141329,13.8848292 0.00481562928,13.6641154 C0.0449453953,13.4434015 0.225526607,13.1725289 0.546564697,12.8514937 L12.9165037,0.481554727 C13.0569559,0.3210352 13.2224874,0.200646519 13.413106,0.120388682 C13.6037208,0.0401308447 13.7993514,0 14.0000018,0 C14.2006483,0 14.396279,0.0401308447 14.5868937,0.120388682 C14.7775124,0.200646519 14.9430439,0.3210352 15.0834999,0.481554727 L27.4534351,12.8514937 C27.7744741,13.1725289 27.9550533,13.4434015 27.9951841,13.6641154 C28.035315,13.8848292 27.8246367,13.9951823 27.3631455,13.9951823 Z"/>
</svg>
